<?xml version="1.0" encoding="UTF-8"?>
<svg xmlns="http://www.w3.org/2000/svg" width="166" height="20">
    <linearGradient id="b" x2="0" y2="100%">
        <stop offset="0" stop-color="#bbb" stop-opacity=".1"/>
        <stop offset="1" stop-opacity=".1"/>
    </linearGradient>
    <mask id="anybadge_17">
        <rect width="166" height="20" rx="3" fill="#fff"/>
    </mask>
    <g mask="url(#anybadge_17)">
        <path fill="#555" d="M0 0h41v20H0z"/>
        <path fill="#00c000" d="M41 0h125v20H41z"/>
        <path fill="url(#b)" d="M0 0h166v20H0z"/>
    </g>
    <g fill="#fff" text-anchor="middle" font-family="DejaVu Sans,Verdana,Geneva,sans-serif" font-size="11">
        <text x="21.5" y="15" fill="#010101" fill-opacity=".3">.data</text>
        <text x="20.5" y="14">.data</text>
    </g>
    <g fill="#fff" text-anchor="middle" font-family="DejaVu Sans,Verdana,Geneva,sans-serif" font-size="11">
        <text x="104.5" y="15" fill="#010101" fill-opacity=".3">101% 🍌 | 848 bytes</text>
        <text x="103.5" y="14">101% 🍌 | 848 bytes</text>
    </g>
</svg>
