<?xml version="1.0" encoding="UTF-8"?>
<svg xmlns="http://www.w3.org/2000/svg" width="197" height="20">
    <linearGradient id="b" x2="0" y2="100%">
        <stop offset="0" stop-color="#bbb" stop-opacity=".1"/>
        <stop offset="1" stop-opacity=".1"/>
    </linearGradient>
    <mask id="anybadge_1">
        <rect width="197" height="20" rx="3" fill="#fff"/>
    </mask>
    <g mask="url(#anybadge_1)">
        <path fill="#555" d="M0 0h41v20H0z"/>
        <path fill="#c0b300" d="M41 0h156v20H41z"/>
        <path fill="url(#b)" d="M0 0h197v20H0z"/>
    </g>
    <g fill="#fff" text-anchor="middle" font-family="DejaVu Sans,Verdana,Geneva,sans-serif" font-size="11">
        <text x="21.5" y="15" fill="#010101" fill-opacity=".3">menu</text>
        <text x="20.5" y="14">menu</text>
    </g>
    <g fill="#fff" text-anchor="middle" font-family="DejaVu Sans,Verdana,Geneva,sans-serif" font-size="11">
        <text x="120.0" y="15" fill="#010101" fill-opacity=".3">46.6701% | 85/114 funcs</text>
        <text x="119.0" y="14">46.6701% | 85/114 funcs</text>
    </g>
</svg>
