<?xml version="1.0" encoding="UTF-8"?>
<svg xmlns="http://www.w3.org/2000/svg" width="179" height="20">
    <linearGradient id="b" x2="0" y2="100%">
        <stop offset="0" stop-color="#bbb" stop-opacity=".1"/>
        <stop offset="1" stop-opacity=".1"/>
    </linearGradient>
    <mask id="anybadge_22">
        <rect width="179" height="20" rx="3" fill="#fff"/>
    </mask>
    <g mask="url(#anybadge_22)">
        <path fill="#555" d="M0 0h54v20H0z"/>
        <path fill="#00c000" d="M54 0h125v20H54z"/>
        <path fill="url(#b)" d="M0 0h179v20H0z"/>
    </g>
    <g fill="#fff" text-anchor="middle" font-family="DejaVu Sans,Verdana,Geneva,sans-serif" font-size="11">
        <text x="28.0" y="15" fill="#010101" fill-opacity=".3">.rodata</text>
        <text x="27.0" y="14">.rodata</text>
    </g>
    <g fill="#fff" text-anchor="middle" font-family="DejaVu Sans,Verdana,Geneva,sans-serif" font-size="11">
        <text x="117.5" y="15" fill="#010101" fill-opacity=".3">101% 🍌 | 608 bytes</text>
        <text x="116.5" y="14">101% 🍌 | 608 bytes</text>
    </g>
</svg>
